{
  "project_info": {
    "project_number": "309312965401",
    "project_id": "final-project-bf173",
    "storage_bucket": "final-project-bf173.appspot.com"
  },
  "client": [
    {
      "client_info": {
        "mobilesdk_app_id": "1:309312965401:android:6723dbbf4a869c28d39388",
        "android_client_info": {
          "package_name": "com.example.finalproject"
        }
      },
      "oauth_client": [
        {
          "client_id": "309312965401-d1nutta5lshs10qb075hnvv8mokms343.apps.googleusercontent.com",
          "client_type": 3
        }
      ],
      "api_key": [
        {
          "current_key": "AIzaSyAdJBZMwEGBch6mkzPyQOcuO1uzz_X72qg"
        }
      ],
      "services": {
        "appinvite_service": {
          "other_platform_oauth_client": [
            {
              "client_id": "309312965401-d1nutta5lshs10qb075hnvv8mokms343.apps.googleusercontent.com",
              "client_type": 3
            }
          ]
        }
      }
    }
  ],
  "configuration_version": "1"
}